{
  "count": 6,
  "next": "http://localhost:8000/api/v1.1/contact-details/?page=2",
  "previous": null,
  "verbose_names": {
    "id": "ID",
    "org": "org",
    "_deleteAfterDate": " deleteAfterDate",
    "_deletedBy": "Gelöscht durch",
    "_isCompany": "Gehört die Adresse zu einer Firma?",
    "salutation": "Anrede",
    "firstName": "Vorname",
    "familyName": "Nachname",
    "nameAffix": "Titel des Mitglieds",
    "dateOfBirth": "Geburtsdatum",
    "internalNote": "Interne Notiz",
    "privateEmail": "Private Mailadressen",
    "companyEmail": "Geschäftliche Mailadressen",
    "_preferredEmailField": " preferredEmailField",
    "preferredCommunicationWay": "Präferierter Kommunikationsweg",
    "companyName": "Firmenname",
    "invoiceCompany": "Soll die Rechnung an die Firma adessiert werden?",
    "addressCompany": "Soll der Brief an die Firma adressiert werden?",
    "privatePhone": "Private Telefonnummer",
    "companyPhone": "Geschäftliche Telefonnummer",
    "mobilePhone": "Mobile Telefonnummer",
    "street": "Straße",
    "city": "Stadt",
    "state": "Bundesland",
    "zip": "Postleitzahl",
    "country": "Land",
    "companyStreet": "Firmenstrasse",
    "companyCity": "Firmenstadt",
    "companyState": "Firmenbundesland",
    "companyZip": "Firmenpostleitzahl",
    "companyCountry": "Firmenland",
    "professionalRole": "Beruf",
    "balance": "Guthaben",
    "iban": "IBAN",
    "bic": "BIC",
    "bankAccountOwner": "Abweichender Bankkontoinhaber",
    "sepaMandate": "SEPA Mandate",
    "sepaDate": "SEPA-Datum",
    "methodOfPayment": "Zahlungsmethode",
    "datevAccountNumber": "DATEV-Kontonummer"
  },
  "descriptions": {
    "id": "",
    "org": "",
    "_deleteAfterDate": "",
    "_deletedBy": "Zeichenwert; Name des Nutzers, welcher die Löschung vollzog; Maximal 500 Zeichen",
    "_isCompany": "Boolscher Wert; Zugehörigkeit der Adresse zu einer Firma; Standardwert: False",
    "salutation": "Zeichenwert; Die Anrede des Mitglieds; Maximal 500 Zeichen; Standardwert: ''; Zusatz: 'Herr' oder'Frau'",
    "firstName": "Zeichenwert; Der Vorname des Mitglieds; Maximal 500 Zeichen; Standardwert: ''",
    "familyName": "Zeichenwert; Der Nachname / Familienname des Mitglieds; Maximal 500 Zeichen; Standardwert: ''",
    "nameAffix": "Zeichenwert; Der (akademische) Titel des Mitglieds; Maximal 500 Zeichen; Standardwert: ''; Zusatz: Bspw. 'Dr.' oder 'Prof.'",
    "dateOfBirth": "Datumswert; Datum der Geburt des Mitglieds",
    "internalNote": "Zeichenwert; Interne Notiz, nur für uns sichtbar",
    "privateEmail": "Zeichenwert; Die privaten Mailadressen des Mitglieds (wenn dieses eine Privatperson ist); Maximal 500 Zeichen; Standardwert: ''",
    "companyEmail": "Zeichenwert; Die geschäftlichen Mailadressen des Mitglieds (wenn dieses eine Firma ist); Maximal 500 Zeichen; Standardwert: ''",
    "_preferredEmailField": "",
    "preferredCommunicationWay": "",
    "companyName": "Zeichenwert; Der Name der Firma; Maximal 500 Zeichen; Standardwert: ''",
    "invoiceCompany": "Boolscher Wert; Rechnung an Firma adressieren; Standardwert: False",
    "addressCompany": "Boolscher Wert; Brief an Firma adressieren; Standardwert: False",
    "privatePhone": "Zeichenwert; Die private Telefonnummer des Mitglieds (wenn dieses eine Privatperson ist); Maximal 500 Zeichen; Standardwert: ''",
    "companyPhone": "zeichenwert; Die geschäftliche Telefonnummber des Mitglieds (wenn dieses eine Firma ist); Maximal 500 Zeichen; Standardwert: ''",
    "mobilePhone": "Zeichenwert; Die mobiele Telefonnummer des Mitglieds; Maximal 500 Zeichen; Standardwert: ''",
    "street": "Zeichenwert; Die Strasse und Hausnummer des Mitglieds (wenn dieses eine Privatperson ist); Maximal 500 Zeichen; Standardwert: ''",
    "city": "Zeichenwert; Die Stadt / die Ortschaft des Mitglieds (wenn dieses eine Privatperson ist); Maximal 500 Zeichen; Standardwert: ''",
    "state": "Zeichenwert; Das Bundesland / Kanton des Mitglieds (wenn dieses eine Privatperson ist); Maximal 500 Zeichen; Standardwert: ''",
    "zip": "Zeichenwert; Die Postleitzahl (PLZ) des Mitglieds (wenn dieses eine Privatperson ist); Maximal 20 Zeichen; Standardwert: ''",
    "country": "Zeichenwert; Land des Mitglieds (wenn dieses eine Privatperson ist); Maximal 500 Zeichen; Standardwert: ''",
    "companyStreet": "Zeichenwert; Die Strasse des Mitglieds (wenn dieses eine Firma ist); Maximal 500 Zeichen; Standardwert: ''",
    "companyCity": "Zeichenwert; Die Stadt / die Ortschaft des Mitglieds (wenn dieses eine Firma ist); Maximal 500 Zeichen; Standardwert: ''",
    "companyState": "Zeichenwert; Das Bundesland / Kanton des Mitglieds (wenn dieses eine Firma ist); Maximal 500 Zeichen; Standardwert: ''",
    "companyZip": "Zeichenwert; Die Postleitzahl (PLZ) des Mitglieds (wenn dieses eine Firma ist); Maximal 20 Zeichen; Standardwert: ''",
    "companyCountry": "Zeichenwert; Land des Mitglieds (wenn dieses eine Firma ist); Maximal 500 Zeichen; Standardwert: ''",
    "professionalRole": "Zeichenwert; Beruf des Mitglieds (wenn dieses eine Privatperson ist); Maximal 500 Zeichen; Standardwert: ''",
    "balance": "Zahlenwert; Guthaben der Adresse in Euro; Maximal 20 Ziffern; Standardwert: 0",
    "iban": "Zeichenwert; Die IBAN des Mitglieds; Maximal 100 Zeichen; Standardwert: ''",
    "bic": "Zeichenwert; Die BIC des Mitglieds; Maximal 100 Zeichen; Standardwert: ''",
    "bankAccountOwner": "Zeichenwert; Falls nicht mit dem Namen der Adresse übereinstimmend: Name des Abweichenden Bankkontoinhabers; Maximal 500 Zeichen; Standardwert: None",
    "sepaMandate": "Zeichenwert; Die SEPA-Mandatschaft; Maximal 100 Zeichen; Standardwert: None",
    "sepaDate": "Datumswert; Datum der SEPA-Überweisung; Standardwert: None",
    "methodOfPayment": "",
    "datevAccountNumber": "Zahlenwert; Die Kontonummer des Mitglieds bei DATEV; Standardwert: 0"
  },
  "results": [
    {
      "id": 2,
      "org": "http://localhost:8000/api/v1.1/organization/2/",
      "_deleteAfterDate": null,
      "_deletedBy": null,
      "_isCompany": false,
      "salutation": "",
      "firstName": "Max",
      "familyName": "Mustermann",
      "name": "Max Mustermann",
      "nameAffix": "",
      "dateOfBirth": null,
      "age": "???",
      "professionalRole": "",
      "internalNote": "",
      "privateEmail": "",
      "companyEmail": "",
      "_preferredEmailField": 0,
      "preferredCommunicationWay": 0,
      "companyName": "",
      "invoiceCompany": false,
      "addressCompany": false,
      "privatePhone": "",
      "companyPhone": "",
      "mobilePhone": "",
      "street": "",
      "city": "",
      "state": "",
      "zip": "",
      "country": "",
      "companyStreet": "",
      "companyCity": "",
      "companyState": "",
      "companyZip": "",
      "companyCountry": "",
      "balance": "0.00",
      "iban": "",
      "bic": "",
      "bankAccountOwner": "",
      "sepaMandate": null,
      "sepaDate": null,
      "methodOfPayment": 0,
      "methodOfPaymentName": "Nicht ausgewählt",
      "referencedMemberPK": 2,
      "datevAccountNumber": 0,
      "copiedInstances": [],
      "groups": [],
      "customFields": null
    },
    {
      "id": 3,
      "org": "http://localhost:8000/api/v1.1/organization/2/",
      "_deleteAfterDate": null,
      "_deletedBy": null,
      "_isCompany": false,
      "salutation": "Herr",
      "firstName": "Max",
      "familyName": "Mustermann",
      "name": "Max Mustermann",
      "nameAffix": "",
      "dateOfBirth": "1971-10-22",
      "age": 49,
      "professionalRole": "",
      "internalNote": "",
      "privateEmail": "max@mustermann.de",
      "companyEmail": "",
      "_preferredEmailField": 0,
      "preferredCommunicationWay": 0,
      "companyName": "",
      "invoiceCompany": false,
      "addressCompany": false,
      "privatePhone": "+00 0000 00000000",
      "companyPhone": "",
      "mobilePhone": "0100 000000",
      "street": "Warner-Allee 1",
      "city": "Bottrop",
      "state": "",
      "zip": "46244",
      "country": "",
      "companyStreet": "",
      "companyCity": "",
      "companyState": "",
      "companyZip": "",
      "companyCountry": "",
      "balance": "5.00",
      "iban": "",
      "bic": "",
      "bankAccountOwner": "",
      "sepaMandate": null,
      "sepaDate": null,
      "methodOfPayment": 0,
      "methodOfPaymentName": "Nicht ausgewählt",
      "referencedMemberPK": 3,
      "datevAccountNumber": 0,
      "copiedInstances": [],
      "groups": [],
      "customFields": null
    },
    {
      "id": 4,
      "org": "http://localhost:8000/api/v1.1/organization/2/",
      "_deleteAfterDate": null,
      "_deletedBy": null,
      "_isCompany": true,
      "salutation": "",
      "firstName": "",
      "familyName": "",
      "name": "Musterfirma GmbH",
      "nameAffix": "",
      "dateOfBirth": null,
      "age": "???",
      "professionalRole": "",
      "internalNote": "",
      "privateEmail": "info@musterfirma.de",
      "companyEmail": "",
      "_preferredEmailField": 0,
      "preferredCommunicationWay": 0,
      "companyName": "Musterfirma GmbH",
      "invoiceCompany": false,
      "addressCompany": false,
      "privatePhone": "+11 1111 111111",
      "companyPhone": "",
      "mobilePhone": "",
      "street": "ABC-Straße 19",
      "city": "Hamburg",
      "state": "",
      "zip": "20354",
      "country": "",
      "companyStreet": "",
      "companyCity": "",
      "companyState": "",
      "companyZip": "",
      "companyCountry": "",
      "balance": "0.00",
      "iban": "",
      "bic": "",
      "bankAccountOwner": "",
      "sepaMandate": null,
      "sepaDate": null,
      "methodOfPayment": 0,
      "methodOfPaymentName": "Nicht ausgewählt",
      "referencedMemberPK": false,
      "datevAccountNumber": 0,
      "copiedInstances": [],
      "groups": [],
      "customFields": null
    },
    {
      "id": 5,
      "org": "http://localhost:8000/api/v1.1/organization/2/",
      "_deleteAfterDate": null,
      "_deletedBy": null,
      "_isCompany": false,
      "salutation": "Frau",
      "firstName": "Tina",
      "familyName": "Musterfrau",
      "name": "Tina Musterfrau",
      "nameAffix": "Dr.",
      "dateOfBirth": "1983-05-12",
      "age": 37,
      "professionalRole": "Geschäftsführerin",
      "internalNote": "",
      "privateEmail": "tina@musterfrau.de",
      "companyEmail": "tina@musterfirma.de",
      "_preferredEmailField": 0,
      "preferredCommunicationWay": 0,
      "companyName": "",
      "invoiceCompany": false,
      "addressCompany": false,
      "privatePhone": "",
      "companyPhone": "+22 2222 2222 - 222",
      "mobilePhone": "0200 2222222",
      "street": "Bavariafilmpl. 7",
      "city": "Grünwald",
      "state": "",
      "zip": "82031",
      "country": "",
      "companyStreet": "",
      "companyCity": "",
      "companyState": "",
      "companyZip": "",
      "companyCountry": "",
      "balance": "35.00",
      "iban": "",
      "bic": "",
      "bankAccountOwner": "",
      "sepaMandate": null,
      "sepaDate": null,
      "methodOfPayment": 0,
      "methodOfPaymentName": "Nicht ausgewählt",
      "referencedMemberPK": 4,
      "datevAccountNumber": 0,
      "copiedInstances": [],
      "groups": [],
      "customFields": null
    },
    {
      "id": 6,
      "org": "http://localhost:8000/api/v1.1/organization/2/",
      "_deleteAfterDate": null,
      "_deletedBy": null,
      "_isCompany": false,
      "salutation": "Frau",
      "firstName": "Anna",
      "familyName": "Musterfrau",
      "name": "Anna Musterfrau",
      "nameAffix": "",
      "dateOfBirth": "1992-02-25",
      "age": 29,
      "professionalRole": "",
      "internalNote": "",
      "privateEmail": "anna@musterfrau.de",
      "companyEmail": "",
      "_preferredEmailField": 0,
      "preferredCommunicationWay": 0,
      "companyName": "",
      "invoiceCompany": false,
      "addressCompany": false,
      "privatePhone": "",
      "companyPhone": "",
      "mobilePhone": "0300 33333333",
      "street": "Holidayparkstraße 1",
      "city": "Haßloch",
      "state": "",
      "zip": "67454",
      "country": "",
      "companyStreet": "",
      "companyCity": "",
      "companyState": "",
      "companyZip": "",
      "companyCountry": "",
      "balance": "0.00",
      "iban": "",
      "bic": "",
      "bankAccountOwner": "",
      "sepaMandate": null,
      "sepaDate": null,
      "methodOfPayment": 0,
      "methodOfPaymentName": "Nicht ausgewählt",
      "referencedMemberPK": 5,
      "datevAccountNumber": 0,
      "copiedInstances": [],
      "groups": [],
      "customFields": null
    }
  ]
}